…
```r
unzip("./RepData_PeerAssessment1/activity.zip", exdir = "./RepData_PeerAssessment1")
filePath <- "./RepData_PeerAssessment1/activity.csv"
activity <- read.csv(filePath)
```


```r
activity$date <- as.Date(activity$date)
tbl_df(activity)
```

```
## # A tibble: 17,568 × 3
##    steps       date interval
##    <int>     <date>    <int>
## 1     NA 2012-10-01        0
## 2     NA 2012-10-01        5
## 3     NA 2012-10-01       10
## 4     NA 2012-10-01       15
## 5     NA 2012-10-01       20
## 6     NA 2012-10-01       25
## 7     NA 2012-10-01       30
## 8     NA 2012-10-01       35
## 9     NA 2012-10-01       40
## 10    NA 2012-10-01       45
## # ... with 17,558 more rows
```
…
From these counts we can compute the mean and median number of steps taken each day.

```r
activity %>% select(steps, date) %>% 
        group_by(date) %>% 
        summarize(total = sum(steps, na.rm = TRUE), 
                  mean = mean(steps, na.rm = TRUE),
                  median = median(steps, na.rm = TRUE))
```

```
## # A tibble: 61 × 4
##          date total     mean median
##        <date> <int>    <dbl>  <dbl>
## 1  2012-10-01     0      NaN     NA
## 2  2012-10-02   126  0.43750      0
## 3  2012-10-03 11352 39.41667      0
## 4  2012-10-04 12116 42.06944      0
## 5  2012-10-05 13294 46.15972      0
## 6  2012-10-06 15420 53.54167      0
## 7  2012-10-07 11015 38.24653      0
## 8  2012-10-08     0      NaN     NA
## 9  2012-10-09 12811 44.48264      0
## 10 2012-10-10  9900 34.37500      0
## # ... with 51 more rows
```
…
```r
finalnew %>% select(steps, date) %>% 
        group_by(date) %>% 
        summarize(total = sum(steps, na.rm = TRUE), 
                  mean = mean(steps, na.rm = TRUE),
                  median = median(steps, na.rm = TRUE))
```

```
## # A tibble: 61 × 4
##          date    total     mean   median
##        <date>    <dbl>    <dbl>    <dbl>
## 1  2012-10-01 10766.19 37.38260 34.11321
## 2  2012-10-02   126.00  0.43750  0.00000
## 3  2012-10-03 11352.00 39.41667  0.00000
## 4  2012-10-04 12116.00 42.06944  0.00000
## 5  2012-10-05 13294.00 46.15972  0.00000
## 6  2012-10-06 15420.00 53.54167  0.00000
## 7  2012-10-07 11015.00 38.24653  0.00000
## 8  2012-10-08 10766.19 37.38260 34.11321
## 9  2012-10-09 12811.00 44.48264  0.00000
## 10 2012-10-10  9900.00 34.37500  0.00000
## # ... with 51 more rows
```
…
